{
  "project_info": {
    "project_number": "596984985329",
    "firebase_url": "https://parkour-perception.firebaseio.com",
    "project_id": "parkour-perception",
    "storage_bucket": "parkour-perception.appspot.com"
  },
  "client": [
    {
      "client_info": {
        "mobilesdk_app_id": "1:596984985329:android:fd5137cd68dd6675",
        "android_client_info": {
          "package_name": "listok.parkour.perception"
        }
      },
      "oauth_client": [
        {
          "client_id": "596984985329-gbcdseil5gn6ol6blh6nmbla01l02bpm.apps.googleusercontent.com",
          "client_type": 3
        }
      ],
      "api_key": [
        {
          "current_key": "AIzaSyAnt9mHL4HVvkpyDfRjrj6XKGw6vnEtiHk"
        }
      ],
      "services": {
        "analytics_service": {
          "status": 1
        },
        "appinvite_service": {
          "status": 1,
          "other_platform_oauth_client": []
        },
        "ads_service": {
          "status": 2
        }
      }
    }
  ],
  "configuration_version": "1"
}